30.0 150.0 3.5
31.0 149.0 3.6
32.0 149.0 3.7
32.0 149.0 3.8
32.0 149.0 3.9
32.0 149.0 3.9
32.0 149.0 3.9
32.0 149.0 3.9
32.0 149.0 3.9
32.0 149.0 3.9
32.0 149.0 3.9
32.0 149.0 3.9
32.0 149.0 3.9
32.0 149.0 3.9
32.0 149.0 3.9
32.0 149.0 3.9
32.0 149.0 3.9
32.0 149.0 3.9
32.0 149.0 3.9
32.0 149.0 3.9
32.0 149.0 3.9
32.0 149.0 3.9
32.0 149.0 3.9
32.0 149.0 3.9
32.0 149.0 3.9
32.0 149.0 3.9
32.0 149.0 3.9
32.0 149.0 3.9
32.0 149.0 3.9
32.0 149.0 3.9
32.0 149.0 3.9
32.0 149.0 3.9
32.0 149.0 3.9
32.0 149.0 3.9
31.0 149.0 3.8
30.0 149.0 3.7
29.0 149.0 3.6
28.0 149.0 3.5
28.0 150.0 3.5
28.0 151.0 3.5
28.0 152.0 3.5
28.0 153.0 3.5
28.0 154.0 3.5
28.0 155.0 3.5
28.0 155.0 3.5
28.0 155.0 3.4
28.0 155.0 3.3
28.0 155.0 3.2
28.0 155.0 3.1
28.0 155.0 3.1
28.0 155.0 3.1
28.0 155.0 3.1
28.0 155.0 3.1
28.0 155.0 3.1
28.0 155.0 3.1
28.0 155.0 3.1
28.0 155.0 3.1
28.0 155.0 3.1
28.0 155.0 3.1
28.0 155.0 3.1
28.0 155.0 3.1
28.0 155.0 3.1
28.0 155.0 3.1
28.0 155.0 3.1
28.0 155.0 3.1
28.0 155.0 3.1
28.0 155.0 3.1
28.0 155.0 3.1
28.0 155.0 3.1
28.0 155.0 3.1
28.0 155.0 3.1
28.0 155.0 3.1
28.0 155.0 3.1
28.0 155.0 3.1
28.0 155.0 3.1
28.0 155.0 3.1
28.0 155.0 3.1
28.0 155.0 3.1
28.0 155.0 3.1
28.0 155.0 3.1
28.0 155.0 3.1
28.0 155.0 3.1
28.0 155.0 3.1
28.0 155.0 3.1
28.0 155.0 3.1
28.0 155.0 3.1
28.0 155.0 3.1
28.0 155.0 3.1
28.0 155.0 3.1
28.0 155.0 3.2
28.0 155.0 3.3
28.0 155.0 3.4
28.0 154.0 3.5
28.0 153.0 3.5
29.0 152.0 3.6
30.0 151.0 3.7
30.0 151.0 3.6
30.0 150.0 3.5
30.0 150.0 3.5
30.0 150.0 3.5